<?xml version="1.0" encoding="UTF-8"?>
<robot generator="Robot 5.0.1 (Python 3.10.5 on win32)" generated="20220715 14:53:47.295" rpa="false" schemaversion="3">
<suite id="s1" name="T10 Test library" source="D:\PyCharm_Projects\API_test1\TestCase\T10_Test_library.robot">
<test id="s1-t1" name="Get Base Sports Endpoint API Response" line="20">
<kw name="A GET request to ${API_BASE} should respond with 200" sourcename="A GET request to ${endpoint} should respond with ${status}">
<var>${response}</var>
<doc>Custom GET keyword with status validation.</doc>
<kw name="GET" library="RequestsLibrary">
<var>${api_response}</var>
<arg>url=${endpoint}</arg>
<arg>expected_status=${status}</arg>
<doc>Sends a GET request.</doc>
<msg timestamp="20220715 14:54:48.465" level="INFO">GET Request : url=https://reqres.in/api/users?page=2/ 
 path_url=/api/users?page=2/ 
 headers={'User-Agent': 'python-requests/2.28.0', 'Accept-Encoding': 'gzip, deflate', 'Accept': '*/*', 'Connection': 'keep-alive'} 
 body=None 
 </msg>
<msg timestamp="20220715 14:54:48.465" level="INFO">GET Response : url=https://reqres.in/api/users?page=2/ 
 status=200, reason=OK 
 headers={'Date': 'Fri, 15 Jul 2022 09:24:48 GMT', 'Content-Type': 'application/json; charset=utf-8', 'Transfer-Encoding': 'chunked', 'Connection': 'keep-alive', 'X-Powered-By': 'Express', 'Access-Control-Allow-Origin': '*', 'Etag': 'W/"406-ut0vzoCuidvyMf8arZpMpJ6ZRDw"', 'Via': '1.1 vegur', 'Cache-Control': 'max-age=14400', 'CF-Cache-Status': 'HIT', 'Age': '6192', 'Expect-CT': 'max-age=604800, report-uri="https://report-uri.cloudflare.com/cdn-cgi/beacon/expect-ct"', 'Report-To': '{"endpoints":[{"url":"https:\\/\\/a.nel.cloudflare.com\\/report\\/v3?s=yMeZReURD6eDdzy8%2FbmjJmYoHpcuh7dmLr4hQlG5Vh9F7dIoLrSLtRpaLakvOCzkae4xu%2F4wNSIO8MtEcJmVl9oQHZrlmRg8DObw3O8rn2p7xtM11T2M4iQQCw%3D%3D"}],"group":"cf-nel","max_age":604800}', 'NEL': '{"success_fraction":0,"report_to":"cf-nel","max_age":604800}', 'Vary': 'Accept-Encoding', 'Server': 'cloudflare', 'CF-RAY': '72b17278ef8dc924-HYD', 'Content-Encoding': 'gzip'} 
 body={"page":2,"per_page":6,"total":12,"total_pages":2,"data":[{"id":7,"email":"michael.lawson@reqres.in","first_name":"Michael","last_name":"Lawson","avatar":"https://reqres.in/img/faces/7-image.jpg"},{"id":8,"email":"lindsay.ferguson@reqres.in","first_name":"Lindsay","last_name":"Ferguson","avatar":"https://reqres.in/img/faces/8-image.jpg"},{"id":9,"email":"tobias.funke@reqres.in","first_name":"Tobias","last_name":"Funke","avatar":"https://reqres.in/img/faces/9-image.jpg"},{"id":10,"email":"byron.fields@reqres.in","first_name":"Byron","last_name":"Fields","avatar":"https://reqres.in/img/faces/10-image.jpg"},{"id":11,"email":"george.edwards@reqres.in","first_name":"George","last_name":"Edwards","avatar":"https://reqres.in/img/faces/11-image.jpg"},{"id":12,"email":"rachel.howell@reqres.in","first_name":"Rachel","last_name":"Howell","avatar":"https://reqres.in/img/faces/12-image.jpg"}],"support":{"url":"https://reqres.in/#support-heading","text":"To keep ReqRes free, contributions towards server costs are appreciated!"}} 
 </msg>
<msg timestamp="20220715 14:54:48.465" level="INFO">${api_response} = &lt;Response [200]&gt;</msg>
<status status="PASS" starttime="20220715 14:53:51.267" endtime="20220715 14:54:48.465"/>
</kw>
<msg timestamp="20220715 14:54:48.465" level="INFO">${response} = &lt;Response [200]&gt;</msg>
<status status="PASS" starttime="20220715 14:53:51.266" endtime="20220715 14:54:48.465"/>
</kw>
<kw name="Sports Schema from ${response} should be valid" library="RequestsDemo" sourcename="Sports Schema from ${response} should be valid">
<var>${result}</var>
<msg timestamp="20220715 14:54:48.470" level="INFO">${result} = True</msg>
<status status="PASS" starttime="20220715 14:54:48.468" endtime="20220715 14:54:48.470"/>
</kw>
<kw name="Log To Console" library="BuiltIn">
<arg>${result}</arg>
<doc>Logs the given message to the console.</doc>
<status status="PASS" starttime="20220715 14:54:48.474" endtime="20220715 14:54:48.474"/>
</kw>
<doc>Simple validation of the base level schema url.</doc>
<tag>valid</tag>
<status status="PASS" starttime="20220715 14:53:51.265" endtime="20220715 14:54:48.475"/>
</test>
<doc>[Calling custom method/Keyword from custom python library (RequestsDemo)]</doc>
<status status="PASS" starttime="20220715 14:53:47.297" endtime="20220715 14:54:48.476"/>
</suite>
<statistics>
<total>
<stat pass="1" fail="0" skip="0">All Tests</stat>
</total>
<tag>
<stat pass="1" fail="0" skip="0">valid</stat>
</tag>
<suite>
<stat pass="1" fail="0" skip="0" id="s1" name="T10 Test library">T10 Test library</stat>
</suite>
</statistics>
<errors>
</errors>
</robot>
